\relax 
\providecommand\hyper@newdestlabel[2]{}
\providecommand\HyperFirstAtBeginDocument{\AtBeginDocument}
\HyperFirstAtBeginDocument{\ifx\hyper@anchor\@undefined
\global\let\oldcontentsline\contentsline
\gdef\contentsline#1#2#3#4{\oldcontentsline{#1}{#2}{#3}}
\global\let\oldnewlabel\newlabel
\gdef\newlabel#1#2{\newlabelxx{#1}#2}
\gdef\newlabelxx#1#2#3#4#5#6{\oldnewlabel{#1}{{#2}{#3}}}
\AtEndDocument{\ifx\hyper@anchor\@undefined
\let\contentsline\oldcontentsline
\let\newlabel\oldnewlabel
\fi}
\fi}
\global\let\hyper@last\relax 
\gdef\HyperFirstAtBeginDocument#1{#1}
\providecommand\HyField@AuxAddToFields[1]{}
\providecommand\HyField@AuxAddToCoFields[2]{}
\@writefile{toc}{\contentsline {section}{\numberline {1}Contact}{1}{section.1}\protected@file@percent }
\@writefile{toc}{\contentsline {section}{\numberline {2}Summary}{1}{section.2}\protected@file@percent }
\@writefile{toc}{\contentsline {section}{\numberline {3}Skills}{1}{section.3}\protected@file@percent }
\@writefile{toc}{\contentsline {subsection}{\numberline {3.1}Technical Skills}{1}{subsection.3.1}\protected@file@percent }
\@writefile{toc}{\contentsline {subsubsection}{\numberline {3.1.1}Programming languages}{1}{subsubsection.3.1.1}\protected@file@percent }
\@writefile{toc}{\contentsline {subsubsection}{\numberline {3.1.2}Scripting}{1}{subsubsection.3.1.2}\protected@file@percent }
\@writefile{toc}{\contentsline {subsubsection}{\numberline {3.1.3}Markup languages}{1}{subsubsection.3.1.3}\protected@file@percent }
\@writefile{toc}{\contentsline {subsubsection}{\numberline {3.1.4}General technology}{1}{subsubsection.3.1.4}\protected@file@percent }
\@writefile{toc}{\contentsline {subsection}{\numberline {3.2}General Skills}{1}{subsection.3.2}\protected@file@percent }
\@writefile{toc}{\contentsline {subsubsection}{\numberline {3.2.1}Leader}{1}{subsubsection.3.2.1}\protected@file@percent }
\@writefile{toc}{\contentsline {subsubsection}{\numberline {3.2.2}Problem solving}{1}{subsubsection.3.2.2}\protected@file@percent }
\@writefile{toc}{\contentsline {subsubsection}{\numberline {3.2.3}Goal oriented}{1}{subsubsection.3.2.3}\protected@file@percent }
\@writefile{toc}{\contentsline {section}{\numberline {4}Education \& Training}{1}{section.4}\protected@file@percent }
\@writefile{toc}{\contentsline {subsection}{\numberline {4.1}Plano East Senior High School}{1}{subsection.4.1}\protected@file@percent }
\@writefile{toc}{\contentsline {subsubsection}{\numberline {4.1.1}(May 2019: Projected Graduation Date); 3.85 GPA}{1}{subsubsection.4.1.1}\protected@file@percent }
\@writefile{toc}{\contentsline {subsubsection}{\numberline {4.1.2}Principles of Engineering @ Plano East}{2}{subsubsection.4.1.2}\protected@file@percent }
\@writefile{toc}{\contentsline {subsubsection}{\numberline {4.1.3}Computer Science Club @ Plano East}{2}{subsubsection.4.1.3}\protected@file@percent }
\@writefile{toc}{\contentsline {section}{\numberline {5}Job Experience}{2}{section.5}\protected@file@percent }
\@writefile{toc}{\contentsline {subsection}{\numberline {5.1}Self Hosting}{2}{subsection.5.1}\protected@file@percent }
\@writefile{toc}{\contentsline {section}{\numberline {6}Hobbies}{2}{section.6}\protected@file@percent }
\@writefile{toc}{\contentsline {subsection}{\numberline {6.1}Music}{2}{subsection.6.1}\protected@file@percent }
\@writefile{toc}{\contentsline {subsubsection}{\numberline {6.1.1}Guitar}{2}{subsubsection.6.1.1}\protected@file@percent }
\@writefile{toc}{\contentsline {subsection}{\numberline {6.2}Computers}{2}{subsection.6.2}\protected@file@percent }
\@writefile{toc}{\contentsline {subsubsection}{\numberline {6.2.1}Programming}{2}{subsubsection.6.2.1}\protected@file@percent }
\@writefile{toc}{\contentsline {subsubsection}{\numberline {6.2.2}Video games}{2}{subsubsection.6.2.2}\protected@file@percent }
